{
  "app": ["/app-acf23e05148a2a37a749.js"],
  "component---src-pages-404-js": [
    "/component---src-pages-404-js-d7063ca8d5faec41fff4.js"
  ],
  "component---src-pages-about-me-js": [
    "/component---src-pages-about-me-js-8d1d94d07fc248622bda.js"
  ],
  "component---src-pages-index-js": [
    "/component---src-pages-index-js-a0b73e13b8163121ce7f.js"
  ]
}
