{
  "errors": [],
  "warnings": [],
  "namedChunkGroups": {
    "app": {
      "chunks": [5, 0, 1],
      "assets": [
        "webpack-runtime-4c78964d6943eeaf4e1f.js",
        "webpack-runtime-4c78964d6943eeaf4e1f.js.map",
        "commons-c364b885a9032c115655.js",
        "commons-c364b885a9032c115655.js.map",
        "app-acf23e05148a2a37a749.js",
        "app-acf23e05148a2a37a749.js.map"
      ],
      "children": {},
      "childAssets": {}
    },
    "component---src-pages-404-js": {
      "chunks": [0, 2],
      "assets": [
        "commons-c364b885a9032c115655.js",
        "commons-c364b885a9032c115655.js.map",
        "component---src-pages-404-js-d7063ca8d5faec41fff4.js",
        "component---src-pages-404-js-d7063ca8d5faec41fff4.js.map"
      ],
      "children": {},
      "childAssets": {}
    },
    "component---src-pages-about-me-js": {
      "chunks": [0, 3],
      "assets": [
        "commons-c364b885a9032c115655.js",
        "commons-c364b885a9032c115655.js.map",
        "component---src-pages-about-me-js-8d1d94d07fc248622bda.js",
        "component---src-pages-about-me-js-8d1d94d07fc248622bda.js.map"
      ],
      "children": {},
      "childAssets": {}
    },
    "component---src-pages-index-js": {
      "chunks": [0, 4],
      "assets": [
        "commons-c364b885a9032c115655.js",
        "commons-c364b885a9032c115655.js.map",
        "component---src-pages-index-js-a0b73e13b8163121ce7f.js",
        "component---src-pages-index-js-a0b73e13b8163121ce7f.js.map"
      ],
      "children": {},
      "childAssets": {}
    }
  },
  "assetsByChunkName": {
    "app": [
      "webpack-runtime-4c78964d6943eeaf4e1f.js",
      "commons-c364b885a9032c115655.js",
      "app-acf23e05148a2a37a749.js"
    ],
    "component---src-pages-404-js": [
      "commons-c364b885a9032c115655.js",
      "component---src-pages-404-js-d7063ca8d5faec41fff4.js"
    ],
    "component---src-pages-about-me-js": [
      "commons-c364b885a9032c115655.js",
      "component---src-pages-about-me-js-8d1d94d07fc248622bda.js"
    ],
    "component---src-pages-index-js": [
      "commons-c364b885a9032c115655.js",
      "component---src-pages-index-js-a0b73e13b8163121ce7f.js"
    ]
  }
}
